  Normal            1

 etall    1, NO =    3, NV =    2, INA =   20
 *********************************************

    I  COEFFICIENT          ORDER   EXPONENTS
     1   -1.000000000000        1     0 1
  -1.0000000000000000     
                                      
   0.0000000000000000     

 etall    1, NO =    3, NV =    2, INA =   16
 *********************************************

    I  COEFFICIENT          ORDER   EXPONENTS
     1   -1.000000000000        0     0 0
  -1.0000000000000000     
     2   -1.000000000000        1     1 0
  -1.0000000000000000     
                                      

 etall    1, NO =    3, NV =    2, INA =   17
 *********************************************

   ALL COMPONENTS ZERO 
                                      
  Normal            2

 etall    1, NO =    3, NV =    2, INA =   20
 *********************************************

    I  COEFFICIENT          ORDER   EXPONENTS
     1   -1.000000000000        2     1 1
  -1.0000000000000000     
     2   0.1666666666667        3     0 3
  0.16666666666666666     
                                      
   0.0000000000000000     

 etall    1, NO =    3, NV =    2, INA =   16
 *********************************************

    I  COEFFICIENT          ORDER   EXPONENTS
     1   -1.000000000000        1     1 0
  -1.0000000000000000     
     2   -1.000000000000        2     2 0
  -1.0000000000000000     
     3   0.5000000000000        2     0 2
  0.50000000000000000     
                                      

 etall    1, NO =    3, NV =    2, INA =   17
 *********************************************

    I  COEFFICIENT          ORDER   EXPONENTS
     1    1.000000000000        1     0 1
   1.0000000000000000     
     2    1.000000000000        2     1 1
   1.0000000000000000     
                                      
  Normal            3

 etall    1, NO =    3, NV =    2, INA =   20
 *********************************************

    I  COEFFICIENT          ORDER   EXPONENTS
     1   -1.000000000000        3     2 1
  -1.0000000000000000     
     2   0.3333333333333        3     0 3
  0.33333333333333331     
                                      
   0.0000000000000000     

 etall    1, NO =    3, NV =    2, INA =   16
 *********************************************

    I  COEFFICIENT          ORDER   EXPONENTS
     1   -1.000000000000        2     2 0
  -1.0000000000000000     
     2    1.000000000000        2     0 2
   1.0000000000000000     
                                      

 etall    1, NO =    3, NV =    2, INA =   17
 *********************************************

    I  COEFFICIENT          ORDER   EXPONENTS
     1    2.000000000000        2     1 1
   2.0000000000000000     
                                      
  Skew            1

 etall    1, NO =    3, NV =    2, INA =   20
 *********************************************

    I  COEFFICIENT          ORDER   EXPONENTS
     1   -1.000000000000        1     1 0
  -1.0000000000000000     
     2   0.5000000000000        2     0 2
  0.50000000000000000     
     3  -0.5000000000000        3     1 2
 -0.50000000000000000     
                                      
   0.0000000000000000     

 etall    1, NO =    3, NV =    2, INA =   16
 *********************************************

    I  COEFFICIENT          ORDER   EXPONENTS
     1    1.000000000000        1     0 1
   1.0000000000000000     
                                      

 etall    1, NO =    3, NV =    2, INA =   17
 *********************************************

    I  COEFFICIENT          ORDER   EXPONENTS
     1    1.000000000000        0     0 0
   1.0000000000000000     
     2    1.000000000000        1     1 0
   1.0000000000000000     
     3   0.5000000000000        2     0 2
  0.50000000000000000     
                                      
  Skew            2

 etall    1, NO =    3, NV =    2, INA =   20
 *********************************************

    I  COEFFICIENT          ORDER   EXPONENTS
     1  -0.5000000000000        2     2 0
 -0.50000000000000000     
     2   0.5000000000000        2     0 2
  0.50000000000000000     
     3   0.5000000000000        3     1 2
  0.50000000000000000     
                                      
   0.0000000000000000     

 etall    1, NO =    3, NV =    2, INA =   16
 *********************************************

    I  COEFFICIENT          ORDER   EXPONENTS
     1    1.000000000000        1     0 1
   1.0000000000000000     
     2    2.000000000000        2     1 1
   2.0000000000000000     
                                      

 etall    1, NO =    3, NV =    2, INA =   17
 *********************************************

    I  COEFFICIENT          ORDER   EXPONENTS
     1    1.000000000000        1     1 0
   1.0000000000000000     
     2    1.000000000000        2     2 0
   1.0000000000000000     
     3  -0.5000000000000        2     0 2
 -0.50000000000000000     
                                      
  Skew            3

 etall    1, NO =    3, NV =    2, INA =   20
 *********************************************

    I  COEFFICIENT          ORDER   EXPONENTS
     1  -0.3333333333333        3     3 0
 -0.33333333333333331     
     2    1.000000000000        3     1 2
   1.0000000000000000     
                                      
   0.0000000000000000     

 etall    1, NO =    3, NV =    2, INA =   16
 *********************************************

    I  COEFFICIENT          ORDER   EXPONENTS
     1    2.000000000000        2     1 1
   2.0000000000000000     
                                      

 etall    1, NO =    3, NV =    2, INA =   17
 *********************************************

    I  COEFFICIENT          ORDER   EXPONENTS
     1    1.000000000000        2     2 0
   1.0000000000000000     
     2   -1.000000000000        2     0 2
  -1.0000000000000000     
                                      
