/*********************************************************************
Initial conditions from MADX model of PSB extraction to BT lines
*********************************************************************/

betx0              =           5.642800e+00 ;
bety0              =           4.240745e+00 ;
alfx0              =          -5.987929e-02 ;
alfy0              =          -8.251805e-02 ;
dx0                =          -1.526807e+00 ;
dy0                =           0.000000e+00 ;
dpx0               =           4.552177e-02 ;
dpy0               =           0.000000e+00 ;
x0                 =           5.609988e-03 ;
px0                =          -4.474104e-05 ;
