/*********************************************************************
Initial conditions from MADX model of PSB extraction to BT lines
*********************************************************************/

betx0              =           1.058937e+01 ;
bety0              =           2.223578e+01 ;
alfx0              =          -1.662841e-01 ;
alfy0              =          -5.776437e-02 ;
dx0                =           2.542415e+00 ;
dy0                =           5.658075e-02 ;
dpx0               =           1.081865e-02 ;
dpy0               =          -2.808422e-04 ;
x0                 =           0.000000e+00 ;
px0                =           0.000000e+00 ;
