/*********************************************************************
Initial conditions from MADX model of PSB extraction to BT lines
*********************************************************************/

betx0              =           6.802324e+00 ;
bety0              =           2.171325e+01 ;
alfx0              =           4.343567e-01 ;
alfy0              =           6.924864e-01 ;
dx0                =           1.718642e+00 ;
dy0                =          -5.700319e-01 ;
dpx0               =          -1.060553e-01 ;
dpy0               =           2.875125e-02 ;
x0                 =           0.000000e+00 ;
px0                =           0.000000e+00 ;
