/*********************************************************************
Initial conditions from MADX model of PSB extraction to BT lines
*********************************************************************/

betx0              =           5.640353e+00 ;
bety0              =           4.242840e+00 ;
alfx0              =          -5.995967e-02 ;
alfy0              =          -8.278711e-02 ;
dx0                =          -1.529107e+00 ;
dy0                =           0.000000e+00 ;
dpx0               =           4.397686e-02 ;
dpy0               =           0.000000e+00 ;
x0                 =           0.000000e+00 ;
px0                =           0.000000e+00 ;
