/*********************************************************************
Initial conditions from MADX model of PSB extraction to BT lines
*********************************************************************/

betx0              =           9.071407e+00 ;
bety0              =           2.020443e+01 ;
alfx0              =          -6.729791e-02 ;
alfy0              =           5.934573e-01 ;
dx0                =           1.960049e+00 ;
dy0                =           6.945949e-01 ;
dpx0               =          -2.106421e-02 ;
dpy0               =          -2.505633e-03 ;
x0                 =           0.000000e+00 ;
px0                =           0.000000e+00 ;
