/*********************************************************************
Initial conditions from MADX model of PSB extraction to BT lines
*********************************************************************/

betx0              =           1.328683e+01 ;
bety0              =           2.227975e+01 ;
alfx0              =          -2.209319e-01 ;
alfy0              =          -5.058802e-02 ;
dx0                =           2.600011e+00 ;
dy0                =           2.951907e-01 ;
dpx0               =           6.336586e-03 ;
dpy0               =          -2.247759e-02 ;
x0                 =           0.000000e+00 ;
px0                =           0.000000e+00 ;
