/*********************************************************************************
Initial conditions from MADX stitched model of PS extraction to TT10 LHC Q20 beam
*********************************************************************************/

betx0              = 22.15813245 ;
bety0              = 20.12558554 ;
alfx0              = 1.17790678 ;
alfy0              = -1.09549900 ;
dx0                = 3.13344216 ;
dy0                = -0.08428688 ;
dpx0               = -0.17945556 ;
dpy0               = 0.02547775 ;
