/*********************************************************************
Initial conditions for injection from MADX model of ELENA
*********************************************************************/

betx0              =           3.136890e+00 ;
bety0              =           3.271210e+00 ;
alfx0              =          -8.857664e-01 ;
alfy0              =          -7.287050e-01 ;
dx0                =           1.297954e+01 ;
dy0                =          -0.000000e+00 ;
dpx0               =          -3.620125e-14 ;
dpy0               =          -0.000000e+00 ;
x0                 =           0.000000e+00 ;
px0                =           0.000000e+00 ;
