/*********************************************************************
Initial conditions for injection from MADX model of ELENA
*********************************************************************/

betx0              =           3.546084e+00 ;
bety0              =           3.607847e+00 ;
alfx0              =          -1.008649e+00 ;
alfy0              =          -8.297986e-01 ;
dx0                =           9.410184e+01 ;
dy0                =           0.000000e+00 ;
dpx0               =          -1.059331e-13 ;
dpy0               =           0.000000e+00 ;
x0                 =           0.000000e+00 ;
px0                =           0.000000e+00 ;
