/*********************************************************************
Initial conditions from MADX model of PSB extraction to BT lines
*********************************************************************/

betx0              =           3.254922e-01 ;
bety0              =           7.291334e+00 ;
alfx0              =           4.149347e-01 ;
alfy0              =           4.398817e-01 ;
dx0                =          -9.790821e-01 ;
dy0                =          -3.757312e-01 ;
dpx0               =           1.361673e-01 ;
dpy0               =           7.071504e-02 ;
x0                 =           7.321958e-04 ;
px0                =           2.569928e-03 ;
