/*********************************************************************
Initial conditions from MADX model of PSB extraction to BT lines
*********************************************************************/

betx0              =           5.947382e+00 ;
bety0              =           4.619817e+00 ;
alfx0              =           2.360295e-01 ;
alfy0              =           3.141001e-01 ;
dx0                =          -1.486958e+00 ;
dy0                =          -0.000000e+00 ;
dpx0               =           1.803997e-03 ;
dpy0               =          -0.000000e+00 ;
x0                 =           1.124289e-03 ;
px0                =           1.010566e-04 ;
